%YAML 1.1
%TAG !u! tag:unity3d.com,2011:
--- !u!21 &2100000
Material:
  serializedVersion: 3
  m_ObjectHideFlags: 0
  m_PrefabParentObject: {fileID: 0}
  m_PrefabInternal: {fileID: 0}
  m_Name: Branch4
  m_Shader: {fileID: 52, guid: 0000000000000000f000000000000000, type: 0}
  m_ShaderKeywords: []
  m_SavedProperties:
    serializedVersion: 2
    m_TexEnvs:
      data:
        first:
          name: _MainTex
        second:
          m_Texture: {fileID: 2800000, guid: 4b8c07c86d614f444b8d91baa277d0c9, type: 3}
          m_Scale: {x: 1, y: 1}
          m_Offset: {x: 0, y: 0}
      data:
        first:
          name: _BumpMap
        second:
          m_Texture: {fileID: 2800000, guid: 002a1763ddaad7a4d9ab7dcb7925b3d8, type: 3}
          m_Scale: {x: 1, y: 1}
          m_Offset: {x: 0, y: 0}
    m_Floats:
      data:
        first:
          name: _Cutoff
        second: .634615421
      data:
        first:
          name: _Shininess
        second: .277064741
    m_Colors:
      data:
        first:
          name: _Color
        second: {r: .925373137, g: .917260051, b: .904655814, a: 1}
      data:
        first:
          name: _SpecColor
        second: {r: .350746274, g: .35598129, b: .35598129, a: 1}
