info face="OptimusPrincepsSemiBold" size=24 bold=0 italic=0 charset="" unicode=1 stretchH=100 smooth=1 aa=1 padding=0,0,0,0 spacing=1,1 outline=0
common lineHeight=24 base=19 scaleW=256 scaleH=128 pages=1 packed=0 alphaChnl=0 redChnl=4 greenChnl=4 blueChnl=4
page id=0 file="OptimusPrinceps_Semi_Bold_24_0.tga"
chars count=93
char id=32   x=108   y=61    width=3     height=1     xoffset=-1    yoffset=23    xadvance=5     page=0  chnl=15
char id=33   x=81    y=34    width=3     height=14    xoffset=0     yoffset=4     xadvance=3     page=0  chnl=15
char id=34   x=52    y=62    width=5     height=7     xoffset=0     yoffset=2     xadvance=5     page=0  chnl=15
char id=35   x=38    y=38    width=11    height=14    xoffset=0     yoffset=5     xadvance=11    page=0  chnl=15
char id=36   x=217   y=17    width=8     height=15    xoffset=0     yoffset=4     xadvance=8     page=0  chnl=15
char id=37   x=101   y=34    width=14    height=13    xoffset=0     yoffset=5     xadvance=14    page=0  chnl=15
char id=38   x=22    y=38    width=15    height=14    xoffset=0     yoffset=4     xadvance=15    page=0  chnl=15
char id=39   x=64    y=62    width=3     height=7     xoffset=0     yoffset=2     xadvance=3     page=0  chnl=15
char id=40   x=238   y=17    width=5     height=15    xoffset=0     yoffset=4     xadvance=5     page=0  chnl=15
char id=41   x=232   y=17    width=5     height=15    xoffset=0     yoffset=4     xadvance=5     page=0  chnl=15
char id=42   x=68    y=62    width=7     height=5     xoffset=0     yoffset=4     xadvance=6     page=0  chnl=15
char id=43   x=200   y=17    width=16    height=15    xoffset=0     yoffset=3     xadvance=16    page=0  chnl=15
char id=44   x=76    y=62    width=3     height=4     xoffset=0     yoffset=15    xadvance=3     page=0  chnl=15
char id=45   x=103   y=61    width=4     height=1     xoffset=0     yoffset=12    xadvance=7     page=0  chnl=15
char id=46   x=80    y=62    width=4     height=3     xoffset=0     yoffset=15    xadvance=4     page=0  chnl=15
char id=47   x=50    y=34    width=10    height=14    xoffset=0     yoffset=4     xadvance=10    page=0  chnl=15
char id=48   x=116   y=34    width=11    height=13    xoffset=0     yoffset=5     xadvance=10    page=0  chnl=15
char id=49   x=210   y=33    width=7     height=13    xoffset=0     yoffset=5     xadvance=7     page=0  chnl=15
char id=50   x=171   y=34    width=9     height=13    xoffset=0     yoffset=5     xadvance=9     page=0  chnl=15
char id=51   x=191   y=33    width=9     height=13    xoffset=0     yoffset=5     xadvance=9     page=0  chnl=15
char id=52   x=128   y=34    width=11    height=13    xoffset=0     yoffset=5     xadvance=10    page=0  chnl=15
char id=53   x=201   y=33    width=8     height=13    xoffset=0     yoffset=5     xadvance=8     page=0  chnl=15
char id=54   x=140   y=34    width=10    height=13    xoffset=0     yoffset=5     xadvance=9     page=0  chnl=15
char id=55   x=181   y=33    width=9     height=13    xoffset=0     yoffset=5     xadvance=9     page=0  chnl=15
char id=56   x=151   y=34    width=9     height=13    xoffset=0     yoffset=5     xadvance=9     page=0  chnl=15
char id=57   x=161   y=34    width=9     height=13    xoffset=0     yoffset=5     xadvance=9     page=0  chnl=15
char id=58   x=42    y=66    width=3     height=8     xoffset=0     yoffset=9     xadvance=3     page=0  chnl=15
char id=59   x=38    y=66    width=3     height=10    xoffset=0     yoffset=9     xadvance=3     page=0  chnl=15
char id=60   x=46    y=66    width=5     height=7     xoffset=0     yoffset=8     xadvance=5     page=0  chnl=15
char id=61   x=40    y=17    width=7     height=3     xoffset=0     yoffset=11    xadvance=7     page=0  chnl=15
char id=62   x=58    y=62    width=5     height=7     xoffset=0     yoffset=9     xadvance=5     page=0  chnl=15
char id=63   x=72    y=34    width=8     height=14    xoffset=0     yoffset=4     xadvance=8     page=0  chnl=15
char id=64   x=85    y=34    width=15    height=13    xoffset=0     yoffset=6     xadvance=15    page=0  chnl=15
char id=65   x=17    y=21    width=15    height=16    xoffset=1     yoffset=3     xadvance=17    page=0  chnl=15
char id=66   x=94    y=17    width=12    height=16    xoffset=0     yoffset=3     xadvance=12    page=0  chnl=15
char id=67   x=49    y=17    width=15    height=16    xoffset=0     yoffset=3     xadvance=15    page=0  chnl=15
char id=68   x=176   y=0     width=17    height=16    xoffset=0     yoffset=3     xadvance=17    page=0  chnl=15
char id=69   x=132   y=17    width=11    height=16    xoffset=0     yoffset=3     xadvance=10    page=0  chnl=15
char id=70   x=120   y=17    width=11    height=16    xoffset=0     yoffset=3     xadvance=10    page=0  chnl=15
char id=71   x=158   y=0     width=17    height=16    xoffset=0     yoffset=3     xadvance=17    page=0  chnl=15
char id=72   x=140   y=0     width=17    height=16    xoffset=0     yoffset=3     xadvance=17    page=0  chnl=15
char id=73   x=246   y=0     width=8     height=16    xoffset=-1    yoffset=3     xadvance=7     page=0  chnl=15
char id=74   x=0     y=0     width=8     height=21    xoffset=-1    yoffset=3     xadvance=7     page=0  chnl=15
char id=75   x=122   y=0     width=17    height=16    xoffset=0     yoffset=3     xadvance=17    page=0  chnl=15
char id=76   x=144   y=17    width=11    height=16    xoffset=0     yoffset=3     xadvance=11    page=0  chnl=15
char id=77   x=63    y=0     width=20    height=16    xoffset=1     yoffset=3     xadvance=22    page=0  chnl=15
char id=78   x=194   y=0     width=17    height=16    xoffset=0     yoffset=3     xadvance=18    page=0  chnl=15
char id=79   x=103   y=0     width=18    height=16    xoffset=0     yoffset=3     xadvance=17    page=0  chnl=15
char id=80   x=107   y=17    width=12    height=16    xoffset=0     yoffset=3     xadvance=11    page=0  chnl=15
char id=81   x=9     y=0     width=30    height=20    xoffset=0     yoffset=3     xadvance=18    page=0  chnl=15
char id=82   x=33    y=21    width=15    height=16    xoffset=1     yoffset=3     xadvance=16    page=0  chnl=15
char id=83   x=156   y=17    width=10    height=16    xoffset=0     yoffset=3     xadvance=9     page=0  chnl=15
char id=84   x=65    y=17    width=14    height=16    xoffset=0     yoffset=3     xadvance=14    page=0  chnl=15
char id=85   x=229   y=0     width=16    height=16    xoffset=0     yoffset=3     xadvance=16    page=0  chnl=15
char id=86   x=84    y=0     width=18    height=16    xoffset=0     yoffset=3     xadvance=18    page=0  chnl=15
char id=87   x=40    y=0     width=22    height=16    xoffset=0     yoffset=3     xadvance=23    page=0  chnl=15
char id=88   x=0     y=22    width=16    height=16    xoffset=0     yoffset=3     xadvance=16    page=0  chnl=15
char id=89   x=212   y=0     width=16    height=16    xoffset=0     yoffset=3     xadvance=16    page=0  chnl=15
char id=90   x=80    y=17    width=13    height=16    xoffset=0     yoffset=3     xadvance=13    page=0  chnl=15
char id=91   x=250   y=17    width=5     height=15    xoffset=0     yoffset=4     xadvance=5     page=0  chnl=15
char id=92   x=61    y=34    width=10    height=14    xoffset=0     yoffset=4     xadvance=10    page=0  chnl=15
char id=93   x=226   y=17    width=5     height=15    xoffset=0     yoffset=4     xadvance=5     page=0  chnl=15
char id=95   x=91    y=62    width=11    height=1     xoffset=-1    yoffset=23    xadvance=9     page=0  chnl=15
char id=96   x=85    y=62    width=5     height=2     xoffset=0     yoffset=2     xadvance=5     page=0  chnl=15
char id=97   x=142   y=48    width=14    height=12    xoffset=0     yoffset=6     xadvance=14    page=0  chnl=15
char id=98   x=225   y=46    width=10    height=12    xoffset=0     yoffset=6     xadvance=10    page=0  chnl=15
char id=99   x=186   y=47    width=13    height=12    xoffset=0     yoffset=6     xadvance=13    page=0  chnl=15
char id=100  x=157   y=48    width=14    height=12    xoffset=0     yoffset=6     xadvance=14    page=0  chnl=15
char id=101  x=21    y=67    width=9     height=12    xoffset=0     yoffset=6     xadvance=9     page=0  chnl=15
char id=102  x=11    y=68    width=9     height=12    xoffset=0     yoffset=6     xadvance=9     page=0  chnl=15
char id=103  x=127   y=48    width=14    height=12    xoffset=0     yoffset=6     xadvance=14    page=0  chnl=15
char id=104  x=51    y=49    width=15    height=12    xoffset=0     yoffset=6     xadvance=15    page=0  chnl=15
char id=105  x=31    y=67    width=6     height=12    xoffset=0     yoffset=6     xadvance=6     page=0  chnl=15
char id=106  x=167   y=17    width=6     height=16    xoffset=0     yoffset=6     xadvance=6     page=0  chnl=15
char id=107  x=67    y=49    width=14    height=12    xoffset=0     yoffset=6     xadvance=14    page=0  chnl=15
char id=108  x=0     y=68    width=10    height=12    xoffset=0     yoffset=6     xadvance=9     page=0  chnl=15
char id=109  x=0     y=55    width=18    height=12    xoffset=0     yoffset=6     xadvance=18    page=0  chnl=15
char id=110  x=35    y=53    width=15    height=12    xoffset=0     yoffset=6     xadvance=15    page=0  chnl=15
char id=111  x=19    y=54    width=15    height=12    xoffset=0     yoffset=6     xadvance=15    page=0  chnl=15
char id=112  x=236   y=46    width=10    height=12    xoffset=0     yoffset=6     xadvance=10    page=0  chnl=15
char id=113  x=174   y=17    width=25    height=15    xoffset=0     yoffset=6     xadvance=15    page=0  chnl=15
char id=114  x=112   y=48    width=14    height=12    xoffset=0     yoffset=6     xadvance=14    page=0  chnl=15
char id=115  x=247   y=46    width=8     height=12    xoffset=0     yoffset=6     xadvance=8     page=0  chnl=15
char id=116  x=200   y=47    width=12    height=12    xoffset=0     yoffset=6     xadvance=12    page=0  chnl=15
char id=117  x=97    y=48    width=14    height=12    xoffset=0     yoffset=6     xadvance=14    page=0  chnl=15
char id=118  x=240   y=33    width=15    height=12    xoffset=0     yoffset=6     xadvance=15    page=0  chnl=15
char id=119  x=218   y=33    width=21    height=12    xoffset=0     yoffset=6     xadvance=21    page=0  chnl=15
char id=120  x=172   y=48    width=13    height=12    xoffset=0     yoffset=6     xadvance=13    page=0  chnl=15
char id=121  x=82    y=49    width=14    height=12    xoffset=0     yoffset=6     xadvance=14    page=0  chnl=15
char id=122  x=213   y=47    width=11    height=12    xoffset=0     yoffset=6     xadvance=11    page=0  chnl=15
char id=123  x=244   y=17    width=5     height=15    xoffset=1     yoffset=4     xadvance=6     page=0  chnl=15
char id=125  x=0     y=39    width=5     height=15    xoffset=0     yoffset=4     xadvance=5     page=0  chnl=15
char id=169  x=6     y=39    width=15    height=14    xoffset=0     yoffset=4     xadvance=15    page=0  chnl=15
kernings count=1399
kerning first=42  second=65  amount=-4  
kerning first=46  second=119 amount=-3  
kerning first=48  second=65  amount=-3  
kerning first=48  second=74  amount=-1  
kerning first=48  second=77  amount=-1  
kerning first=48  second=86  amount=-2  
kerning first=48  second=87  amount=-2  
kerning first=48  second=88  amount=-3  
kerning first=48  second=89  amount=-2  
kerning first=48  second=93  amount=-1  
kerning first=48  second=95  amount=-10 
kerning first=48  second=96  amount=-5  
kerning first=48  second=97  amount=-2  
kerning first=48  second=109 amount=-1  
kerning first=125 second=125 amount=-1  
kerning first=125 second=109 amount=-1  
kerning first=125 second=106 amount=-1  
kerning first=125 second=97  amount=-1  
kerning first=125 second=96  amount=-5  
kerning first=125 second=95  amount=-5  
kerning first=125 second=93  amount=-1  
kerning first=125 second=89  amount=-2  
kerning first=49  second=48  amount=-1  
kerning first=49  second=52  amount=-1  
kerning first=49  second=65  amount=-1  
kerning first=49  second=67  amount=-1  
kerning first=49  second=71  amount=-1  
kerning first=49  second=74  amount=-1  
kerning first=49  second=79  amount=-1  
kerning first=49  second=81  amount=-1  
kerning first=49  second=84  amount=-1  
kerning first=49  second=85  amount=-2  
kerning first=49  second=86  amount=-3  
kerning first=49  second=87  amount=-3  
kerning first=49  second=89  amount=-2  
kerning first=49  second=93  amount=-1  
kerning first=49  second=95  amount=-7  
kerning first=49  second=96  amount=-5  
kerning first=49  second=99  amount=-1  
kerning first=49  second=103 amount=-1  
kerning first=49  second=106 amount=-1  
kerning first=49  second=111 amount=-1  
kerning first=49  second=113 amount=-1  
kerning first=49  second=116 amount=-1  
kerning first=49  second=117 amount=-1  
kerning first=49  second=118 amount=-1  
kerning first=49  second=119 amount=-1  
kerning first=49  second=121 amount=-1  
kerning first=49  second=123 amount=-1  
kerning first=125 second=88  amount=-2  
kerning first=125 second=87  amount=-2  
kerning first=125 second=86  amount=-2  
kerning first=125 second=77  amount=-1  
kerning first=125 second=74  amount=-1  
kerning first=125 second=65  amount=-2  
kerning first=123 second=123 amount=-1  
kerning first=123 second=106 amount=-1  
kerning first=50  second=52  amount=-1  
kerning first=50  second=65  amount=-1  
kerning first=50  second=74  amount=-1  
kerning first=50  second=77  amount=-1  
kerning first=50  second=86  amount=-2  
kerning first=50  second=87  amount=-2  
kerning first=50  second=88  amount=-1  
kerning first=50  second=89  amount=-2  
kerning first=50  second=93  amount=-1  
kerning first=50  second=95  amount=-9  
kerning first=50  second=96  amount=-5  
kerning first=123 second=96  amount=-5  
kerning first=51  second=65  amount=-2  
kerning first=51  second=74  amount=-1  
kerning first=51  second=77  amount=-1  
kerning first=51  second=86  amount=-3  
kerning first=51  second=87  amount=-2  
kerning first=51  second=88  amount=-3  
kerning first=51  second=89  amount=-2  
kerning first=51  second=93  amount=-1  
kerning first=51  second=95  amount=-8  
kerning first=51  second=96  amount=-5  
kerning first=51  second=97  amount=-1  
kerning first=51  second=106 amount=-1  
kerning first=123 second=95  amount=-5  
kerning first=123 second=81  amount=-1  
kerning first=123 second=74  amount=-1  
kerning first=122 second=123 amount=-1  
kerning first=122 second=96  amount=-5  
kerning first=122 second=95  amount=-10 
kerning first=122 second=93  amount=-1  
kerning first=122 second=89  amount=-2  
kerning first=122 second=87  amount=-1  
kerning first=52  second=65  amount=-1  
kerning first=52  second=74  amount=-1  
kerning first=52  second=77  amount=-1  
kerning first=52  second=84  amount=-1  
kerning first=52  second=86  amount=-3  
kerning first=52  second=87  amount=-3  
kerning first=52  second=88  amount=-1  
kerning first=52  second=89  amount=-2  
kerning first=52  second=93  amount=-1  
kerning first=52  second=95  amount=-10 
kerning first=52  second=96  amount=-5  
kerning first=52  second=106 amount=-1  
kerning first=52  second=116 amount=-1  
kerning first=52  second=118 amount=-1  
kerning first=52  second=119 amount=-1  
kerning first=52  second=121 amount=-1  
kerning first=52  second=123 amount=-1  
kerning first=53  second=65  amount=-2  
kerning first=53  second=74  amount=-1  
kerning first=53  second=77  amount=-1  
kerning first=53  second=86  amount=-1  
kerning first=53  second=87  amount=-1  
kerning first=53  second=88  amount=-1  
kerning first=122 second=86  amount=-2  
kerning first=53  second=93  amount=-1  
kerning first=53  second=95  amount=-8  
kerning first=53  second=96  amount=-5  
kerning first=53  second=97  amount=-1  
kerning first=53  second=109 amount=-1  
kerning first=122 second=84  amount=-4  
kerning first=122 second=74  amount=-1  
kerning first=122 second=52  amount=-3  
kerning first=121 second=123 amount=-1  
kerning first=121 second=116 amount=-1  
kerning first=121 second=113 amount=-2  
kerning first=121 second=111 amount=-2  
kerning first=121 second=109 amount=-1  
kerning first=54  second=55  amount=-1  
kerning first=54  second=65  amount=-2  
kerning first=54  second=74  amount=-1  
kerning first=54  second=77  amount=-1  
kerning first=121 second=103 amount=-2  
kerning first=54  second=86  amount=-3  
kerning first=54  second=87  amount=-2  
kerning first=54  second=88  amount=-2  
kerning first=54  second=89  amount=-2  
kerning first=54  second=93  amount=-1  
kerning first=54  second=95  amount=-9  
kerning first=54  second=96  amount=-5  
kerning first=54  second=106 amount=-1  
kerning first=54  second=116 amount=-2  
kerning first=54  second=118 amount=-2  
kerning first=54  second=119 amount=-2  
kerning first=54  second=121 amount=-2  
kerning first=55  second=52  amount=-2  
kerning first=55  second=54  amount=-1  
kerning first=55  second=65  amount=-5  
kerning first=55  second=74  amount=-1  
kerning first=55  second=77  amount=-2  
kerning first=55  second=86  amount=-1  
kerning first=55  second=87  amount=-1  
kerning first=55  second=88  amount=-1  
kerning first=55  second=89  amount=-1  
kerning first=55  second=93  amount=-1  
kerning first=55  second=95  amount=-8  
kerning first=55  second=96  amount=-5  
kerning first=55  second=97  amount=-4  
kerning first=55  second=99  amount=-1  
kerning first=55  second=103 amount=-1  
kerning first=55  second=109 amount=-1  
kerning first=55  second=111 amount=-1  
kerning first=55  second=113 amount=-1  
kerning first=55  second=123 amount=-1  
kerning first=121 second=99  amount=-2  
kerning first=121 second=97  amount=-3  
kerning first=121 second=96  amount=-5  
kerning first=121 second=95  amount=-10 
kerning first=121 second=93  amount=-1  
kerning first=121 second=89  amount=-2  
kerning first=121 second=88  amount=-2  
kerning first=121 second=87  amount=-1  
kerning first=121 second=86  amount=-2  
kerning first=121 second=84  amount=-4  
kerning first=121 second=82  amount=-1  
kerning first=56  second=65  amount=-2  
kerning first=56  second=74  amount=-1  
kerning first=56  second=77  amount=-1  
kerning first=56  second=86  amount=-2  
kerning first=56  second=87  amount=-2  
kerning first=56  second=88  amount=-2  
kerning first=56  second=89  amount=-2  
kerning first=56  second=93  amount=-1  
kerning first=56  second=95  amount=-9  
kerning first=56  second=96  amount=-5  
kerning first=121 second=80  amount=-1  
kerning first=56  second=123 amount=-1  
kerning first=121 second=78  amount=-1  
kerning first=121 second=77  amount=-2  
kerning first=121 second=76  amount=-1  
kerning first=121 second=75  amount=-1  
kerning first=121 second=74  amount=-2  
kerning first=121 second=72  amount=-1  
kerning first=57  second=65  amount=-3  
kerning first=57  second=74  amount=-1  
kerning first=57  second=77  amount=-1  
kerning first=57  second=86  amount=-2  
kerning first=57  second=87  amount=-2  
kerning first=57  second=88  amount=-3  
kerning first=57  second=89  amount=-2  
kerning first=57  second=93  amount=-1  
kerning first=57  second=95  amount=-9  
kerning first=57  second=96  amount=-5  
kerning first=57  second=97  amount=-3  
kerning first=57  second=109 amount=-1  
kerning first=121 second=70  amount=-1  
kerning first=121 second=69  amount=-1  
kerning first=121 second=68  amount=-1  
kerning first=121 second=66  amount=-1  
kerning first=121 second=65  amount=-4  
kerning first=121 second=54  amount=-2  
kerning first=121 second=52  amount=-4  
kerning first=120 second=123 amount=-1  
kerning first=65  second=48  amount=-3  
kerning first=65  second=49  amount=-1  
kerning first=65  second=50  amount=-1  
kerning first=65  second=51  amount=-1  
kerning first=65  second=52  amount=-2  
kerning first=65  second=53  amount=-1  
kerning first=65  second=54  amount=-2  
kerning first=65  second=55  amount=-2  
kerning first=65  second=56  amount=-2  
kerning first=65  second=57  amount=-2  
kerning first=65  second=67  amount=-3  
kerning first=65  second=71  amount=-3  
kerning first=65  second=74  amount=-1  
kerning first=65  second=79  amount=-3  
kerning first=65  second=81  amount=-3  
kerning first=65  second=84  amount=-3  
kerning first=65  second=85  amount=-4  
kerning first=65  second=86  amount=-6  
kerning first=65  second=87  amount=-4  
kerning first=65  second=89  amount=-4  
kerning first=65  second=95  amount=-10 
kerning first=65  second=96  amount=-8  
kerning first=65  second=97  amount=-1  
kerning first=65  second=98  amount=-1  
kerning first=65  second=99  amount=-3  
kerning first=65  second=100 amount=-1  
kerning first=65  second=101 amount=-1  
kerning first=65  second=102 amount=-1  
kerning first=65  second=103 amount=-3  
kerning first=65  second=104 amount=-1  
kerning first=65  second=105 amount=-1  
kerning first=65  second=106 amount=-1  
kerning first=65  second=107 amount=-1  
kerning first=65  second=108 amount=-1  
kerning first=65  second=109 amount=-1  
kerning first=65  second=110 amount=-1  
kerning first=65  second=111 amount=-3  
kerning first=65  second=112 amount=-1  
kerning first=65  second=113 amount=-3  
kerning first=65  second=114 amount=-1  
kerning first=65  second=115 amount=-1  
kerning first=65  second=116 amount=-4  
kerning first=65  second=117 amount=-4  
kerning first=65  second=118 amount=-5  
kerning first=65  second=119 amount=-5  
kerning first=65  second=120 amount=-1  
kerning first=65  second=121 amount=-5  
kerning first=65  second=122 amount=-1  
kerning first=65  second=123 amount=-3  
kerning first=120 second=113 amount=-2  
kerning first=120 second=111 amount=-2  
kerning first=120 second=103 amount=-2  
kerning first=120 second=99  amount=-2  
kerning first=120 second=96  amount=-5  
kerning first=120 second=95  amount=-10 
kerning first=120 second=93  amount=-1  
kerning first=120 second=89  amount=-2  
kerning first=120 second=87  amount=-2  
kerning first=120 second=86  amount=-2  
kerning first=120 second=85  amount=-1  
kerning first=120 second=84  amount=-4  
kerning first=120 second=82  amount=-1  
kerning first=120 second=75  amount=-1  
kerning first=120 second=74  amount=-2  
kerning first=120 second=67  amount=-1  
kerning first=120 second=65  amount=-1  
kerning first=120 second=54  amount=-1  
kerning first=66  second=65  amount=-1  
kerning first=120 second=52  amount=-2  
kerning first=66  second=74  amount=-1  
kerning first=66  second=77  amount=-1  
kerning first=66  second=86  amount=-2  
kerning first=66  second=87  amount=-2  
kerning first=66  second=88  amount=-1  
kerning first=66  second=89  amount=-2  
kerning first=66  second=93  amount=-1  
kerning first=66  second=95  amount=-10 
kerning first=66  second=96  amount=-5  
kerning first=66  second=106 amount=-1  
kerning first=119 second=123 amount=-1  
kerning first=66  second=123 amount=-1  
kerning first=67  second=52  amount=-3  
kerning first=67  second=74  amount=-1  
kerning first=67  second=95  amount=-10 
kerning first=67  second=96  amount=-2  
kerning first=67  second=123 amount=-1  
kerning first=68  second=65  amount=-2  
kerning first=119 second=116 amount=-1  
kerning first=68  second=68  amount=-1  
kerning first=119 second=113 amount=-2  
kerning first=119 second=111 amount=-2  
kerning first=119 second=109 amount=-1  
kerning first=68  second=74  amount=-1  
kerning first=119 second=103 amount=-1  
kerning first=68  second=77  amount=-1  
kerning first=119 second=99  amount=-2  
kerning first=119 second=97  amount=-4  
kerning first=68  second=84  amount=-1  
kerning first=68  second=86  amount=-3  
kerning first=68  second=87  amount=-2  
kerning first=68  second=88  amount=-3  
kerning first=68  second=89  amount=-3  
kerning first=68  second=93  amount=-1  
kerning first=68  second=95  amount=-10 
kerning first=68  second=96  amount=-7  
kerning first=68  second=97  amount=-1  
kerning first=68  second=106 amount=-1  
kerning first=68  second=109 amount=-1  
kerning first=119 second=96  amount=-5  
kerning first=119 second=95  amount=-10 
kerning first=119 second=93  amount=-1  
kerning first=119 second=89  amount=-2  
kerning first=119 second=88  amount=-2  
kerning first=119 second=87  amount=-1  
kerning first=119 second=86  amount=-2  
kerning first=119 second=84  amount=-4  
kerning first=69  second=95  amount=-10 
kerning first=69  second=96  amount=-1  
kerning first=69  second=106 amount=-1  
kerning first=69  second=117 amount=-1  
kerning first=69  second=118 amount=-2  
kerning first=69  second=119 amount=-2  
kerning first=69  second=121 amount=-2  
kerning first=119 second=82  amount=-1  
kerning first=119 second=78  amount=-1  
kerning first=119 second=77  amount=-2  
kerning first=119 second=75  amount=-1  
kerning first=70  second=65  amount=-3  
kerning first=70  second=77  amount=-2  
kerning first=70  second=95  amount=-10 
kerning first=70  second=97  amount=-3  
kerning first=70  second=106 amount=-1  
kerning first=70  second=109 amount=-1  
kerning first=70  second=110 amount=-1  
kerning first=119 second=74  amount=-2  
kerning first=119 second=72  amount=-1  
kerning first=119 second=70  amount=-1  
kerning first=119 second=69  amount=-1  
kerning first=119 second=68  amount=-1  
kerning first=119 second=66  amount=-1  
kerning first=119 second=65  amount=-5  
kerning first=119 second=54  amount=-2  
kerning first=119 second=52  amount=-3  
kerning first=71  second=65  amount=-1  
kerning first=71  second=74  amount=-2  
kerning first=71  second=77  amount=-1  
kerning first=71  second=78  amount=-1  
kerning first=71  second=88  amount=-1  
kerning first=119 second=46  amount=-3  
kerning first=71  second=95  amount=-10 
kerning first=71  second=96  amount=-3  
kerning first=118 second=123 amount=-1  
kerning first=71  second=106 amount=-1  
kerning first=71  second=116 amount=-1  
kerning first=118 second=116 amount=-1  
kerning first=118 second=113 amount=-2  
kerning first=118 second=111 amount=-2  
kerning first=118 second=109 amount=-2  
kerning first=118 second=103 amount=-2  
kerning first=118 second=99  amount=-2  
kerning first=72  second=48  amount=-1  
kerning first=72  second=49  amount=-1  
kerning first=118 second=97  amount=-5  
kerning first=72  second=51  amount=-1  
kerning first=72  second=52  amount=-1  
kerning first=118 second=96  amount=-5  
kerning first=72  second=54  amount=-1  
kerning first=72  second=55  amount=-1  
kerning first=72  second=56  amount=-1  
kerning first=72  second=57  amount=-1  
kerning first=72  second=67  amount=-1  
kerning first=72  second=71  amount=-1  
kerning first=72  second=79  amount=-1  
kerning first=72  second=81  amount=-1  
kerning first=72  second=95  amount=-10 
kerning first=72  second=96  amount=-2  
kerning first=72  second=97  amount=-1  
kerning first=72  second=98  amount=-1  
kerning first=72  second=99  amount=-1  
kerning first=72  second=100 amount=-1  
kerning first=72  second=101 amount=-1  
kerning first=72  second=102 amount=-1  
kerning first=72  second=103 amount=-1  
kerning first=72  second=104 amount=-1  
kerning first=118 second=95  amount=-10 
kerning first=72  second=106 amount=-1  
kerning first=72  second=107 amount=-1  
kerning first=72  second=108 amount=-1  
kerning first=72  second=109 amount=-1  
kerning first=72  second=110 amount=-1  
kerning first=72  second=111 amount=-1  
kerning first=72  second=112 amount=-1  
kerning first=72  second=113 amount=-1  
kerning first=72  second=114 amount=-1  
kerning first=72  second=115 amount=-1  
kerning first=72  second=116 amount=-1  
kerning first=72  second=117 amount=-1  
kerning first=72  second=118 amount=-1  
kerning first=72  second=119 amount=-1  
kerning first=118 second=93  amount=-1  
kerning first=72  second=121 amount=-1  
kerning first=72  second=123 amount=-1  
kerning first=118 second=89  amount=-2  
kerning first=118 second=88  amount=-2  
kerning first=118 second=87  amount=-1  
kerning first=118 second=86  amount=-2  
kerning first=118 second=84  amount=-4  
kerning first=118 second=82  amount=-1  
kerning first=118 second=80  amount=-1  
kerning first=118 second=78  amount=-1  
kerning first=118 second=77  amount=-2  
kerning first=118 second=76  amount=-1  
kerning first=118 second=75  amount=-1  
kerning first=118 second=74  amount=-2  
kerning first=118 second=72  amount=-1  
kerning first=118 second=70  amount=-1  
kerning first=118 second=69  amount=-1  
kerning first=118 second=68  amount=-1  
kerning first=118 second=66  amount=-1  
kerning first=118 second=65  amount=-5  
kerning first=73  second=48  amount=-1  
kerning first=118 second=54  amount=-2  
kerning first=73  second=52  amount=-1  
kerning first=118 second=52  amount=-3  
kerning first=117 second=123 amount=-1  
kerning first=117 second=109 amount=-2  
kerning first=117 second=97  amount=-2  
kerning first=73  second=67  amount=-1  
kerning first=73  second=71  amount=-1  
kerning first=73  second=79  amount=-1  
kerning first=73  second=81  amount=-1  
kerning first=73  second=95  amount=-7  
kerning first=73  second=96  amount=-1  
kerning first=117 second=96  amount=-5  
kerning first=117 second=95  amount=-10 
kerning first=73  second=99  amount=-1  
kerning first=117 second=93  amount=-1  
kerning first=117 second=89  amount=-2  
kerning first=117 second=88  amount=-2  
kerning first=73  second=103 amount=-1  
kerning first=117 second=87  amount=-1  
kerning first=73  second=106 amount=-1  
kerning first=117 second=86  amount=-2  
kerning first=117 second=84  amount=-4  
kerning first=73  second=111 amount=-1  
kerning first=117 second=82  amount=-1  
kerning first=73  second=113 amount=-1  
kerning first=117 second=80  amount=-1  
kerning first=73  second=116 amount=-1  
kerning first=73  second=117 amount=-1  
kerning first=73  second=118 amount=-1  
kerning first=73  second=119 amount=-1  
kerning first=73  second=121 amount=-1  
kerning first=73  second=123 amount=-1  
kerning first=117 second=78  amount=-1  
kerning first=117 second=77  amount=-2  
kerning first=117 second=76  amount=-1  
kerning first=117 second=75  amount=-1  
kerning first=117 second=74  amount=-2  
kerning first=117 second=72  amount=-1  
kerning first=117 second=70  amount=-1  
kerning first=117 second=69  amount=-1  
kerning first=117 second=68  amount=-1  
kerning first=117 second=66  amount=-1  
kerning first=117 second=65  amount=-3  
kerning first=116 second=123 amount=-1  
kerning first=116 second=120 amount=-1  
kerning first=116 second=113 amount=-1  
kerning first=116 second=109 amount=-1  
kerning first=74  second=65  amount=-1  
kerning first=74  second=95  amount=-3  
kerning first=74  second=106 amount=-1  
kerning first=74  second=123 amount=-1  
kerning first=75  second=48  amount=-4  
kerning first=75  second=49  amount=-1  
kerning first=75  second=50  amount=-1  
kerning first=75  second=51  amount=-1  
kerning first=75  second=52  amount=-5  
kerning first=75  second=53  amount=-1  
kerning first=75  second=54  amount=-3  
kerning first=75  second=55  amount=-2  
kerning first=75  second=56  amount=-3  
kerning first=75  second=57  amount=-2  
kerning first=75  second=67  amount=-3  
kerning first=75  second=71  amount=-3  
kerning first=75  second=74  amount=-1  
kerning first=75  second=79  amount=-4  
kerning first=75  second=81  amount=-4  
kerning first=75  second=84  amount=-1  
kerning first=75  second=85  amount=-1  
kerning first=75  second=86  amount=-1  
kerning first=75  second=87  amount=-1  
kerning first=75  second=89  amount=-1  
kerning first=75  second=95  amount=-10 
kerning first=75  second=96  amount=-3  
kerning first=75  second=97  amount=-1  
kerning first=75  second=98  amount=-1  
kerning first=75  second=99  amount=-4  
kerning first=75  second=100 amount=-1  
kerning first=75  second=101 amount=-1  
kerning first=75  second=102 amount=-1  
kerning first=75  second=103 amount=-4  
kerning first=75  second=104 amount=-1  
kerning first=75  second=105 amount=-1  
kerning first=75  second=106 amount=-1  
kerning first=75  second=107 amount=-1  
kerning first=75  second=108 amount=-2  
kerning first=75  second=109 amount=-1  
kerning first=75  second=110 amount=-1  
kerning first=75  second=111 amount=-5  
kerning first=75  second=112 amount=-1  
kerning first=75  second=113 amount=-4  
kerning first=75  second=114 amount=-1  
kerning first=75  second=115 amount=-1  
kerning first=75  second=116 amount=-4  
kerning first=75  second=117 amount=-5  
kerning first=75  second=118 amount=-5  
kerning first=75  second=119 amount=-5  
kerning first=75  second=120 amount=-1  
kerning first=75  second=121 amount=-5  
kerning first=75  second=122 amount=-1  
kerning first=75  second=123 amount=-3  
kerning first=116 second=106 amount=-1  
kerning first=116 second=99  amount=-1  
kerning first=116 second=97  amount=-2  
kerning first=116 second=96  amount=-5  
kerning first=116 second=95  amount=-9  
kerning first=116 second=93  amount=-1  
kerning first=116 second=89  amount=-1  
kerning first=116 second=88  amount=-2  
kerning first=116 second=87  amount=-1  
kerning first=116 second=86  amount=-1  
kerning first=116 second=84  amount=-4  
kerning first=116 second=77  amount=-1  
kerning first=116 second=74  amount=-1  
kerning first=116 second=65  amount=-3  
kerning first=116 second=52  amount=-2  
kerning first=116 second=45  amount=-2  
kerning first=115 second=123 amount=-1  
kerning first=115 second=96  amount=-5  
kerning first=76  second=52  amount=-3  
kerning first=76  second=74  amount=-1  
kerning first=76  second=84  amount=-3  
kerning first=76  second=85  amount=-1  
kerning first=76  second=86  amount=-3  
kerning first=76  second=87  amount=-3  
kerning first=76  second=89  amount=-3  
kerning first=76  second=95  amount=-10 
kerning first=76  second=96  amount=-6  
kerning first=76  second=106 amount=-1  
kerning first=76  second=116 amount=-2  
kerning first=76  second=117 amount=-1  
kerning first=76  second=118 amount=-4  
kerning first=76  second=119 amount=-3  
kerning first=76  second=121 amount=-3  
kerning first=76  second=123 amount=-1  
kerning first=115 second=95  amount=-8  
kerning first=115 second=93  amount=-1  
kerning first=115 second=89  amount=-2  
kerning first=115 second=88  amount=-2  
kerning first=115 second=87  amount=-1  
kerning first=115 second=86  amount=-2  
kerning first=77  second=48  amount=-2  
kerning first=77  second=49  amount=-1  
kerning first=77  second=50  amount=-1  
kerning first=77  second=51  amount=-1  
kerning first=77  second=52  amount=-2  
kerning first=77  second=53  amount=-1  
kerning first=77  second=54  amount=-2  
kerning first=77  second=55  amount=-2  
kerning first=77  second=56  amount=-2  
kerning first=77  second=57  amount=-2  
kerning first=77  second=67  amount=-2  
kerning first=77  second=71  amount=-2  
kerning first=77  second=74  amount=-1  
kerning first=77  second=79  amount=-2  
kerning first=77  second=81  amount=-2  
kerning first=77  second=84  amount=-3  
kerning first=77  second=85  amount=-3  
kerning first=77  second=86  amount=-3  
kerning first=77  second=87  amount=-3  
kerning first=77  second=89  amount=-3  
kerning first=77  second=95  amount=-10 
kerning first=77  second=96  amount=-4  
kerning first=77  second=97  amount=-1  
kerning first=77  second=98  amount=-1  
kerning first=77  second=99  amount=-2  
kerning first=77  second=100 amount=-1  
kerning first=77  second=101 amount=-1  
kerning first=77  second=102 amount=-1  
kerning first=77  second=103 amount=-2  
kerning first=77  second=104 amount=-1  
kerning first=77  second=105 amount=-1  
kerning first=77  second=106 amount=-1  
kerning first=77  second=107 amount=-1  
kerning first=77  second=108 amount=-1  
kerning first=77  second=109 amount=-1  
kerning first=77  second=110 amount=-1  
kerning first=77  second=111 amount=-2  
kerning first=77  second=112 amount=-1  
kerning first=77  second=113 amount=-2  
kerning first=77  second=114 amount=-1  
kerning first=77  second=115 amount=-1  
kerning first=77  second=116 amount=-2  
kerning first=77  second=117 amount=-2  
kerning first=77  second=118 amount=-2  
kerning first=77  second=119 amount=-3  
kerning first=77  second=120 amount=-1  
kerning first=77  second=121 amount=-2  
kerning first=77  second=122 amount=-1  
kerning first=77  second=123 amount=-3  
kerning first=115 second=77  amount=-1  
kerning first=115 second=74  amount=-1  
kerning first=115 second=65  amount=-2  
kerning first=114 second=123 amount=-2  
kerning first=114 second=121 amount=-3  
kerning first=114 second=119 amount=-4  
kerning first=114 second=118 amount=-5  
kerning first=114 second=117 amount=-3  
kerning first=114 second=116 amount=-3  
kerning first=114 second=113 amount=-2  
kerning first=114 second=111 amount=-3  
kerning first=114 second=106 amount=-1  
kerning first=114 second=103 amount=-3  
kerning first=114 second=99  amount=-2  
kerning first=114 second=97  amount=-1  
kerning first=114 second=96  amount=-5  
kerning first=114 second=95  amount=-10 
kerning first=114 second=89  amount=-5  
kerning first=78  second=65  amount=-1  
kerning first=78  second=77  amount=-1  
kerning first=114 second=87  amount=-4  
kerning first=114 second=86  amount=-6  
kerning first=78  second=95  amount=-10 
kerning first=78  second=96  amount=-1  
kerning first=78  second=97  amount=-1  
kerning first=78  second=106 amount=-1  
kerning first=114 second=85  amount=-2  
kerning first=78  second=123 amount=-1  
kerning first=114 second=84  amount=-4  
kerning first=114 second=81  amount=-2  
kerning first=114 second=79  amount=-2  
kerning first=114 second=74  amount=-2  
kerning first=114 second=71  amount=-2  
kerning first=114 second=67  amount=-2  
kerning first=79  second=65  amount=-2  
kerning first=114 second=65  amount=-1  
kerning first=79  second=68  amount=-1  
kerning first=114 second=56  amount=-1  
kerning first=114 second=54  amount=-1  
kerning first=114 second=52  amount=-3  
kerning first=79  second=74  amount=-1  
kerning first=114 second=48  amount=-2  
kerning first=79  second=77  amount=-1  
kerning first=113 second=121 amount=-1  
kerning first=113 second=119 amount=-1  
kerning first=79  second=84  amount=-1  
kerning first=79  second=86  amount=-3  
kerning first=79  second=87  amount=-2  
kerning first=79  second=88  amount=-3  
kerning first=79  second=89  amount=-3  
kerning first=79  second=90  amount=-1  
kerning first=79  second=93  amount=-1  
kerning first=79  second=95  amount=-10 
kerning first=79  second=96  amount=-6  
kerning first=79  second=97  amount=-2  
kerning first=79  second=106 amount=-1  
kerning first=79  second=109 amount=-1  
kerning first=79  second=120 amount=-1  
kerning first=113 second=118 amount=-1  
kerning first=113 second=89  amount=-1  
kerning first=113 second=87  amount=-1  
kerning first=113 second=86  amount=-2  
kerning first=112 second=109 amount=-1  
kerning first=112 second=97  amount=-3  
kerning first=112 second=96  amount=-5  
kerning first=112 second=95  amount=-9  
kerning first=80  second=52  amount=-2  
kerning first=80  second=65  amount=-3  
kerning first=80  second=74  amount=-1  
kerning first=80  second=77  amount=-1  
kerning first=80  second=86  amount=-1  
kerning first=80  second=87  amount=-1  
kerning first=80  second=88  amount=-1  
kerning first=80  second=95  amount=-10 
kerning first=80  second=96  amount=-4  
kerning first=80  second=97  amount=-4  
kerning first=80  second=109 amount=-1  
kerning first=80  second=123 amount=-1  
kerning first=112 second=93  amount=-1  
kerning first=112 second=89  amount=-2  
kerning first=112 second=88  amount=-3  
kerning first=112 second=87  amount=-2  
kerning first=112 second=86  amount=-2  
kerning first=112 second=84  amount=-4  
kerning first=112 second=77  amount=-1  
kerning first=112 second=74  amount=-1  
kerning first=81  second=86  amount=-2  
kerning first=81  second=87  amount=-2  
kerning first=81  second=89  amount=-2  
kerning first=81  second=96  amount=-5  
kerning first=81  second=97  amount=-1  
kerning first=81  second=109 amount=-1  
kerning first=112 second=65  amount=-4  
kerning first=112 second=52  amount=-1  
kerning first=111 second=121 amount=-2  
kerning first=111 second=120 amount=-2  
kerning first=111 second=119 amount=-2  
kerning first=111 second=118 amount=-2  
kerning first=111 second=116 amount=-1  
kerning first=111 second=109 amount=-1  
kerning first=82  second=48  amount=-3  
kerning first=82  second=49  amount=-1  
kerning first=82  second=52  amount=-3  
kerning first=82  second=54  amount=-2  
kerning first=82  second=55  amount=-1  
kerning first=82  second=56  amount=-2  
kerning first=82  second=57  amount=-1  
kerning first=82  second=67  amount=-2  
kerning first=82  second=71  amount=-2  
kerning first=82  second=79  amount=-3  
kerning first=82  second=81  amount=-3  
kerning first=82  second=84  amount=-2  
kerning first=82  second=85  amount=-2  
kerning first=82  second=86  amount=-5  
kerning first=82  second=87  amount=-3  
kerning first=82  second=89  amount=-3  
kerning first=82  second=95  amount=-9  
kerning first=82  second=96  amount=-9  
kerning first=82  second=99  amount=-3  
kerning first=82  second=103 amount=-3  
kerning first=82  second=111 amount=-3  
kerning first=82  second=113 amount=-3  
kerning first=82  second=115 amount=-1  
kerning first=82  second=116 amount=-3  
kerning first=82  second=117 amount=-3  
kerning first=82  second=118 amount=-3  
kerning first=82  second=119 amount=-3  
kerning first=82  second=121 amount=-3  
kerning first=82  second=123 amount=-1  
kerning first=111 second=106 amount=-1  
kerning first=111 second=97  amount=-2  
kerning first=111 second=96  amount=-5  
kerning first=111 second=95  amount=-10 
kerning first=111 second=93  amount=-1  
kerning first=111 second=90  amount=-1  
kerning first=111 second=89  amount=-4  
kerning first=111 second=88  amount=-3  
kerning first=111 second=87  amount=-2  
kerning first=83  second=65  amount=-1  
kerning first=83  second=77  amount=-1  
kerning first=83  second=95  amount=-9  
kerning first=83  second=96  amount=-1  
kerning first=83  second=106 amount=-1  
kerning first=83  second=123 amount=-1  
kerning first=111 second=86  amount=-3  
kerning first=84  second=52  amount=-4  
kerning first=84  second=54  amount=-3  
kerning first=84  second=65  amount=-2  
kerning first=84  second=77  amount=-2  
kerning first=111 second=84  amount=-4  
kerning first=84  second=89  amount=-1  
kerning first=84  second=95  amount=-10 
kerning first=84  second=96  amount=-1  
kerning first=84  second=97  amount=-4  
kerning first=84  second=99  amount=-3  
kerning first=84  second=103 amount=-3  
kerning first=84  second=106 amount=-4  
kerning first=84  second=109 amount=-2  
kerning first=84  second=111 amount=-3  
kerning first=84  second=113 amount=-4  
kerning first=84  second=115 amount=-1  
kerning first=84  second=121 amount=-1  
kerning first=84  second=123 amount=-1  
kerning first=111 second=77  amount=-1  
kerning first=111 second=74  amount=-1  
kerning first=111 second=65  amount=-2  
kerning first=111 second=50  amount=-1  
kerning first=111 second=49  amount=-1  
kerning first=110 second=123 amount=-1  
kerning first=110 second=96  amount=-5  
kerning first=110 second=95  amount=-10 
kerning first=110 second=93  amount=-1  
kerning first=110 second=89  amount=-2  
kerning first=110 second=88  amount=-2  
kerning first=85  second=50  amount=-1  
kerning first=110 second=87  amount=-1  
kerning first=85  second=65  amount=-3  
kerning first=85  second=77  amount=-2  
kerning first=110 second=86  amount=-2  
kerning first=85  second=95  amount=-10 
kerning first=85  second=96  amount=-1  
kerning first=85  second=97  amount=-2  
kerning first=85  second=106 amount=-1  
kerning first=85  second=109 amount=-2  
kerning first=85  second=110 amount=-1  
kerning first=110 second=84  amount=-4  
kerning first=110 second=82  amount=-1  
kerning first=85  second=123 amount=-1  
kerning first=110 second=80  amount=-1  
kerning first=110 second=78  amount=-1  
kerning first=110 second=77  amount=-2  
kerning first=110 second=76  amount=-1  
kerning first=110 second=75  amount=-1  
kerning first=110 second=74  amount=-2  
kerning first=110 second=72  amount=-1  
kerning first=110 second=70  amount=-1  
kerning first=110 second=69  amount=-1  
kerning first=86  second=48  amount=-2  
kerning first=86  second=49  amount=-2  
kerning first=86  second=50  amount=-2  
kerning first=86  second=51  amount=-1  
kerning first=86  second=52  amount=-4  
kerning first=86  second=53  amount=-2  
kerning first=86  second=54  amount=-3  
kerning first=86  second=55  amount=-1  
kerning first=86  second=56  amount=-2  
kerning first=86  second=57  amount=-2  
kerning first=86  second=65  amount=-6  
kerning first=86  second=67  amount=-2  
kerning first=86  second=71  amount=-2  
kerning first=86  second=77  amount=-2  
kerning first=86  second=78  amount=-1  
kerning first=86  second=79  amount=-2  
kerning first=86  second=81  amount=-2  
kerning first=86  second=83  amount=-1  
kerning first=86  second=95  amount=-10 
kerning first=86  second=96  amount=-1  
kerning first=86  second=97  amount=-6  
kerning first=86  second=98  amount=-1  
kerning first=86  second=99  amount=-3  
kerning first=86  second=100 amount=-1  
kerning first=86  second=101 amount=-1  
kerning first=86  second=102 amount=-1  
kerning first=86  second=103 amount=-3  
kerning first=86  second=104 amount=-1  
kerning first=86  second=105 amount=-1  
kerning first=86  second=106 amount=-2  
kerning first=86  second=107 amount=-1  
kerning first=86  second=108 amount=-1  
kerning first=86  second=109 amount=-4  
kerning first=86  second=110 amount=-3  
kerning first=86  second=111 amount=-3  
kerning first=86  second=112 amount=-1  
kerning first=86  second=113 amount=-3  
kerning first=86  second=114 amount=-1  
kerning first=86  second=115 amount=-2  
kerning first=86  second=116 amount=-2  
kerning first=86  second=117 amount=-1  
kerning first=86  second=118 amount=-1  
kerning first=86  second=119 amount=-1  
kerning first=86  second=120 amount=-2  
kerning first=86  second=121 amount=-1  
kerning first=86  second=122 amount=-2  
kerning first=86  second=123 amount=-3  
kerning first=110 second=68  amount=-1  
kerning first=110 second=66  amount=-1  
kerning first=110 second=65  amount=-2  
kerning first=109 second=123 amount=-2  
kerning first=109 second=121 amount=-2  
kerning first=109 second=119 amount=-2  
kerning first=109 second=118 amount=-2  
kerning first=109 second=117 amount=-2  
kerning first=109 second=116 amount=-2  
kerning first=109 second=113 amount=-2  
kerning first=109 second=111 amount=-1  
kerning first=109 second=106 amount=-1  
kerning first=109 second=103 amount=-1  
kerning first=109 second=99  amount=-1  
kerning first=109 second=96  amount=-5  
kerning first=109 second=95  amount=-10 
kerning first=87  second=48  amount=-2  
kerning first=87  second=49  amount=-1  
kerning first=87  second=50  amount=-1  
kerning first=87  second=51  amount=-1  
kerning first=87  second=52  amount=-3  
kerning first=87  second=53  amount=-2  
kerning first=87  second=54  amount=-3  
kerning first=87  second=55  amount=-1  
kerning first=87  second=56  amount=-2  
kerning first=87  second=57  amount=-1  
kerning first=87  second=65  amount=-5  
kerning first=87  second=67  amount=-2  
kerning first=87  second=71  amount=-2  
kerning first=87  second=77  amount=-2  
kerning first=87  second=78  amount=-1  
kerning first=87  second=79  amount=-2  
kerning first=87  second=81  amount=-2  
kerning first=87  second=83  amount=-1  
kerning first=87  second=95  amount=-10 
kerning first=87  second=96  amount=-1  
kerning first=87  second=97  amount=-4  
kerning first=87  second=98  amount=-1  
kerning first=87  second=99  amount=-2  
kerning first=87  second=100 amount=-1  
kerning first=87  second=101 amount=-1  
kerning first=87  second=102 amount=-1  
kerning first=87  second=103 amount=-2  
kerning first=87  second=104 amount=-1  
kerning first=87  second=105 amount=-1  
kerning first=87  second=106 amount=-2  
kerning first=87  second=107 amount=-1  
kerning first=87  second=108 amount=-1  
kerning first=87  second=109 amount=-4  
kerning first=87  second=110 amount=-2  
kerning first=87  second=111 amount=-2  
kerning first=87  second=112 amount=-1  
kerning first=87  second=113 amount=-2  
kerning first=87  second=114 amount=-1  
kerning first=87  second=115 amount=-2  
kerning first=87  second=116 amount=-1  
kerning first=87  second=117 amount=-1  
kerning first=87  second=118 amount=-1  
kerning first=87  second=119 amount=-1  
kerning first=87  second=120 amount=-1  
kerning first=87  second=121 amount=-1  
kerning first=87  second=122 amount=-2  
kerning first=87  second=123 amount=-3  
kerning first=109 second=93  amount=-1  
kerning first=109 second=89  amount=-5  
kerning first=109 second=88  amount=-1  
kerning first=109 second=87  amount=-4  
kerning first=109 second=86  amount=-5  
kerning first=109 second=85  amount=-2  
kerning first=109 second=84  amount=-2  
kerning first=109 second=82  amount=-1  
kerning first=109 second=81  amount=-2  
kerning first=109 second=80  amount=-1  
kerning first=109 second=79  amount=-1  
kerning first=109 second=75  amount=-1  
kerning first=109 second=74  amount=-2  
kerning first=109 second=72  amount=-1  
kerning first=109 second=71  amount=-2  
kerning first=109 second=70  amount=-1  
kerning first=88  second=48  amount=-3  
kerning first=88  second=49  amount=-1  
kerning first=109 second=67  amount=-1  
kerning first=88  second=52  amount=-3  
kerning first=88  second=54  amount=-2  
kerning first=88  second=55  amount=-1  
kerning first=88  second=56  amount=-2  
kerning first=88  second=57  amount=-1  
kerning first=88  second=67  amount=-3  
kerning first=88  second=71  amount=-3  
kerning first=88  second=74  amount=-1  
kerning first=88  second=79  amount=-3  
kerning first=88  second=81  amount=-3  
kerning first=88  second=95  amount=-10 
kerning first=88  second=96  amount=-2  
kerning first=88  second=99  amount=-3  
kerning first=88  second=103 amount=-3  
kerning first=88  second=106 amount=-1  
kerning first=88  second=111 amount=-3  
kerning first=88  second=113 amount=-3  
kerning first=88  second=115 amount=-1  
kerning first=88  second=116 amount=-3  
kerning first=88  second=117 amount=-2  
kerning first=88  second=118 amount=-2  
kerning first=88  second=119 amount=-2  
kerning first=88  second=121 amount=-2  
kerning first=88  second=123 amount=-3  
kerning first=109 second=65  amount=-1  
kerning first=109 second=54  amount=-1  
kerning first=109 second=52  amount=-1  
kerning first=109 second=48  amount=-1  
kerning first=108 second=123 amount=-1  
kerning first=108 second=121 amount=-2  
kerning first=108 second=119 amount=-3  
kerning first=108 second=118 amount=-2  
kerning first=108 second=117 amount=-1  
kerning first=108 second=116 amount=-2  
kerning first=108 second=106 amount=-1  
kerning first=108 second=96  amount=-5  
kerning first=89  second=48  amount=-3  
kerning first=89  second=49  amount=-2  
kerning first=89  second=50  amount=-2  
kerning first=89  second=51  amount=-2  
kerning first=89  second=52  amount=-5  
kerning first=89  second=53  amount=-2  
kerning first=89  second=54  amount=-5  
kerning first=89  second=55  amount=-1  
kerning first=89  second=56  amount=-3  
kerning first=89  second=57  amount=-2  
kerning first=89  second=65  amount=-4  
kerning first=89  second=67  amount=-3  
kerning first=89  second=71  amount=-3  
kerning first=89  second=77  amount=-2  
kerning first=89  second=78  amount=-1  
kerning first=89  second=79  amount=-3  
kerning first=89  second=81  amount=-3  
kerning first=89  second=83  amount=-1  
kerning first=89  second=95  amount=-10 
kerning first=89  second=96  amount=-1  
kerning first=89  second=97  amount=-5  
kerning first=89  second=98  amount=-2  
kerning first=89  second=99  amount=-4  
kerning first=89  second=100 amount=-2  
kerning first=89  second=101 amount=-1  
kerning first=89  second=102 amount=-1  
kerning first=89  second=103 amount=-4  
kerning first=89  second=104 amount=-2  
kerning first=89  second=105 amount=-1  
kerning first=89  second=106 amount=-3  
kerning first=89  second=107 amount=-2  
kerning first=89  second=108 amount=-1  
kerning first=89  second=109 amount=-4  
kerning first=89  second=110 amount=-3  
kerning first=89  second=111 amount=-4  
kerning first=89  second=112 amount=-1  
kerning first=89  second=113 amount=-5  
kerning first=89  second=114 amount=-2  
kerning first=89  second=115 amount=-3  
kerning first=89  second=116 amount=-2  
kerning first=89  second=117 amount=-2  
kerning first=89  second=118 amount=-2  
kerning first=89  second=119 amount=-2  
kerning first=89  second=120 amount=-2  
kerning first=89  second=121 amount=-2  
kerning first=89  second=122 amount=-2  
kerning first=89  second=123 amount=-3  
kerning first=108 second=95  amount=-9  
kerning first=108 second=93  amount=-1  
kerning first=108 second=89  amount=-5  
kerning first=108 second=87  amount=-3  
kerning first=108 second=86  amount=-5  
kerning first=108 second=85  amount=-1  
kerning first=108 second=84  amount=-4  
kerning first=108 second=74  amount=-1  
kerning first=108 second=65  amount=-1  
kerning first=108 second=52  amount=-3  
kerning first=107 second=123 amount=-1  
kerning first=107 second=121 amount=-1  
kerning first=107 second=119 amount=-1  
kerning first=107 second=118 amount=-1  
kerning first=107 second=117 amount=-1  
kerning first=107 second=116 amount=-3  
kerning first=90  second=52  amount=-3  
kerning first=107 second=113 amount=-2  
kerning first=90  second=95  amount=-10 
kerning first=90  second=96  amount=-1  
kerning first=90  second=106 amount=-1  
kerning first=90  second=116 amount=-1  
kerning first=107 second=111 amount=-2  
kerning first=107 second=106 amount=-1  
kerning first=107 second=103 amount=-2  
kerning first=107 second=99  amount=-2  
kerning first=90  second=123 amount=-1  
kerning first=107 second=96  amount=-5  
kerning first=107 second=95  amount=-10 
kerning first=107 second=89  amount=-3  
kerning first=107 second=87  amount=-3  
kerning first=91  second=48  amount=-1  
kerning first=91  second=49  amount=-1  
kerning first=91  second=50  amount=-1  
kerning first=91  second=52  amount=-1  
kerning first=91  second=53  amount=-1  
kerning first=91  second=54  amount=-1  
kerning first=91  second=55  amount=-1  
kerning first=91  second=56  amount=-1  
kerning first=91  second=57  amount=-1  
kerning first=91  second=67  amount=-1  
kerning first=91  second=71  amount=-1  
kerning first=91  second=74  amount=-1  
kerning first=91  second=79  amount=-1  
kerning first=91  second=81  amount=-1  
kerning first=91  second=95  amount=-4  
kerning first=91  second=96  amount=-5  
kerning first=91  second=97  amount=-1  
kerning first=91  second=98  amount=-1  
kerning first=91  second=99  amount=-1  
kerning first=91  second=100 amount=-1  
kerning first=91  second=101 amount=-1  
kerning first=91  second=102 amount=-1  
kerning first=91  second=103 amount=-1  
kerning first=91  second=104 amount=-1  
kerning first=91  second=105 amount=-1  
kerning first=91  second=106 amount=-1  
kerning first=91  second=107 amount=-1  
kerning first=91  second=108 amount=-1  
kerning first=91  second=109 amount=-1  
kerning first=91  second=110 amount=-1  
kerning first=91  second=111 amount=-1  
kerning first=91  second=112 amount=-1  
kerning first=91  second=113 amount=-1  
kerning first=91  second=114 amount=-1  
kerning first=91  second=115 amount=-1  
kerning first=91  second=116 amount=-1  
kerning first=91  second=117 amount=-1  
kerning first=91  second=118 amount=-1  
kerning first=91  second=119 amount=-1  
kerning first=91  second=120 amount=-1  
kerning first=91  second=121 amount=-1  
kerning first=91  second=122 amount=-1  
kerning first=91  second=123 amount=-1  
kerning first=107 second=86  amount=-3  
kerning first=107 second=85  amount=-2  
kerning first=107 second=84  amount=-4  
kerning first=107 second=81  amount=-2  
kerning first=107 second=79  amount=-2  
kerning first=107 second=74  amount=-1  
kerning first=107 second=71  amount=-2  
kerning first=107 second=67  amount=-2  
kerning first=107 second=65  amount=-1  
kerning first=107 second=56  amount=-1  
kerning first=107 second=54  amount=-1  
kerning first=107 second=52  amount=-3  
kerning first=107 second=48  amount=-2  
kerning first=106 second=96  amount=-5  
kerning first=106 second=95  amount=-6  
kerning first=93  second=74  amount=-1  
kerning first=93  second=95  amount=-4  
kerning first=93  second=96  amount=-5  
kerning first=95  second=48  amount=-9  
kerning first=95  second=49  amount=-6  
kerning first=95  second=50  amount=-8  
kerning first=95  second=51  amount=-8  
kerning first=95  second=52  amount=-9  
kerning first=95  second=53  amount=-7  
kerning first=95  second=54  amount=-8  
kerning first=95  second=55  amount=-8  
kerning first=95  second=56  amount=-8  
kerning first=95  second=57  amount=-8  
kerning first=95  second=65  amount=-9  
kerning first=95  second=66  amount=-9  
kerning first=95  second=67  amount=-9  
kerning first=95  second=68  amount=-9  
kerning first=95  second=69  amount=-9  
kerning first=95  second=70  amount=-9  
kerning first=95  second=71  amount=-9  
kerning first=95  second=72  amount=-9  
kerning first=95  second=73  amount=-6  
kerning first=95  second=75  amount=-9  
kerning first=95  second=76  amount=-9  
kerning first=95  second=77  amount=-9  
kerning first=95  second=78  amount=-9  
kerning first=95  second=79  amount=-9  
kerning first=95  second=80  amount=-9  
kerning first=95  second=81  amount=-9  
kerning first=95  second=82  amount=-9  
kerning first=95  second=83  amount=-8  
kerning first=95  second=84  amount=-9  
kerning first=95  second=85  amount=-9  
kerning first=95  second=86  amount=-9  
kerning first=95  second=87  amount=-9  
kerning first=95  second=88  amount=-9  
kerning first=95  second=89  amount=-9  
kerning first=95  second=90  amount=-9  
kerning first=95  second=91  amount=-4  
kerning first=95  second=93  amount=-4  
kerning first=95  second=96  amount=-4  
kerning first=95  second=97  amount=-9  
kerning first=95  second=98  amount=-9  
kerning first=95  second=99  amount=-9  
kerning first=95  second=100 amount=-9  
kerning first=95  second=101 amount=-8  
kerning first=95  second=102 amount=-8  
kerning first=95  second=103 amount=-9  
kerning first=95  second=104 amount=-9  
kerning first=95  second=105 amount=-5  
kerning first=95  second=106 amount=-5  
kerning first=95  second=107 amount=-9  
kerning first=95  second=108 amount=-9  
kerning first=95  second=109 amount=-9  
kerning first=95  second=110 amount=-9  
kerning first=95  second=111 amount=-9  
kerning first=95  second=112 amount=-9  
kerning first=95  second=113 amount=-9  
kerning first=95  second=114 amount=-9  
kerning first=95  second=115 amount=-7  
kerning first=95  second=116 amount=-9  
kerning first=95  second=117 amount=-9  
kerning first=95  second=118 amount=-9  
kerning first=95  second=119 amount=-9  
kerning first=95  second=120 amount=-9  
kerning first=95  second=121 amount=-9  
kerning first=95  second=122 amount=-9  
kerning first=95  second=123 amount=-5  
kerning first=95  second=125 amount=-5  
kerning first=106 second=89  amount=-2  
kerning first=106 second=87  amount=-1  
kerning first=106 second=86  amount=-2  
kerning first=106 second=84  amount=-6  
kerning first=106 second=74  amount=-2  
kerning first=105 second=123 amount=-1  
kerning first=105 second=96  amount=-5  
kerning first=105 second=95  amount=-5  
kerning first=105 second=93  amount=-1  
kerning first=105 second=89  amount=-2  
kerning first=105 second=87  amount=-1  
kerning first=105 second=86  amount=-2  
kerning first=105 second=85  amount=-1  
kerning first=105 second=84  amount=-2  
kerning first=105 second=74  amount=-1  
kerning first=104 second=123 amount=-1  
kerning first=104 second=113 amount=-1  
kerning first=104 second=96  amount=-5  
kerning first=96  second=48  amount=-5  
kerning first=96  second=49  amount=-5  
kerning first=96  second=50  amount=-5  
kerning first=96  second=51  amount=-5  
kerning first=96  second=52  amount=-5  
kerning first=96  second=53  amount=-5  
kerning first=96  second=54  amount=-5  
kerning first=96  second=55  amount=-5  
kerning first=96  second=56  amount=-5  
kerning first=96  second=57  amount=-5  
kerning first=96  second=65  amount=-5  
kerning first=96  second=67  amount=-5  
kerning first=96  second=71  amount=-5  
kerning first=96  second=77  amount=-2  
kerning first=104 second=95  amount=-10 
kerning first=96  second=79  amount=-5  
kerning first=96  second=81  amount=-3  
kerning first=96  second=83  amount=-1  
kerning first=96  second=91  amount=-5  
kerning first=96  second=93  amount=-5  
kerning first=96  second=95  amount=-5  
kerning first=96  second=97  amount=-5  
kerning first=96  second=98  amount=-5  
kerning first=96  second=99  amount=-5  
kerning first=96  second=100 amount=-5  
kerning first=96  second=101 amount=-5  
kerning first=96  second=102 amount=-5  
kerning first=96  second=103 amount=-5  
kerning first=96  second=104 amount=-5  
kerning first=96  second=105 amount=-5  
kerning first=96  second=106 amount=-5  
kerning first=96  second=107 amount=-5  
kerning first=96  second=108 amount=-5  
kerning first=96  second=109 amount=-5  
kerning first=96  second=110 amount=-5  
kerning first=96  second=111 amount=-5  
kerning first=96  second=112 amount=-5  
kerning first=96  second=113 amount=-5  
kerning first=96  second=114 amount=-5  
kerning first=96  second=115 amount=-5  
kerning first=96  second=116 amount=-5  
kerning first=96  second=117 amount=-5  
kerning first=96  second=118 amount=-5  
kerning first=96  second=119 amount=-5  
kerning first=96  second=120 amount=-5  
kerning first=96  second=121 amount=-5  
kerning first=96  second=122 amount=-5  
kerning first=96  second=123 amount=-6  
kerning first=96  second=125 amount=-5  
kerning first=104 second=93  amount=-1  
kerning first=104 second=89  amount=-2  
kerning first=104 second=87  amount=-2  
kerning first=104 second=86  amount=-2  
kerning first=104 second=85  amount=-1  
kerning first=104 second=84  amount=-4  
kerning first=104 second=82  amount=-1  
kerning first=104 second=74  amount=-1  
kerning first=104 second=65  amount=-1  
kerning first=103 second=125 amount=-1  
kerning first=103 second=123 amount=-1  
kerning first=103 second=106 amount=-1  
kerning first=103 second=97  amount=-1  
kerning first=103 second=96  amount=-5  
kerning first=103 second=95  amount=-10 
kerning first=103 second=93  amount=-1  
kerning first=103 second=89  amount=-3  
kerning first=103 second=88  amount=-2  
kerning first=97  second=48  amount=-1  
kerning first=97  second=52  amount=-2  
kerning first=97  second=54  amount=-1  
kerning first=97  second=65  amount=-1  
kerning first=97  second=67  amount=-1  
kerning first=103 second=87  amount=-2  
kerning first=97  second=71  amount=-2  
kerning first=103 second=86  amount=-3  
kerning first=97  second=74  amount=-2  
kerning first=97  second=75  amount=-1  
kerning first=103 second=84  amount=-3  
kerning first=103 second=82  amount=-1  
kerning first=97  second=79  amount=-2  
kerning first=103 second=80  amount=-1  
kerning first=97  second=81  amount=-2  
kerning first=97  second=82  amount=-1  
kerning first=97  second=84  amount=-4  
kerning first=97  second=85  amount=-2  
kerning first=97  second=86  amount=-6  
kerning first=97  second=87  amount=-4  
kerning first=103 second=78  amount=-1  
kerning first=97  second=89  amount=-5  
kerning first=97  second=93  amount=-1  
kerning first=97  second=95  amount=-10 
kerning first=97  second=96  amount=-5  
kerning first=97  second=99  amount=-2  
kerning first=97  second=103 amount=-2  
kerning first=97  second=106 amount=-1  
kerning first=97  second=110 amount=-1  
kerning first=97  second=111 amount=-2  
kerning first=97  second=113 amount=-2  
kerning first=97  second=116 amount=-2  
kerning first=97  second=117 amount=-2  
kerning first=97  second=118 amount=-5  
kerning first=97  second=119 amount=-4  
kerning first=97  second=121 amount=-3  
kerning first=97  second=123 amount=-1  
kerning first=103 second=77  amount=-1  
kerning first=103 second=76  amount=-1  
kerning first=103 second=75  amount=-1  
kerning first=103 second=74  amount=-2  
kerning first=103 second=72  amount=-1  
kerning first=103 second=70  amount=-1  
kerning first=103 second=69  amount=-1  
kerning first=103 second=68  amount=-1  
kerning first=98  second=65  amount=-2  
kerning first=103 second=66  amount=-1  
kerning first=98  second=74  amount=-1  
kerning first=98  second=77  amount=-1  
kerning first=98  second=84  amount=-3  
kerning first=98  second=86  amount=-3  
kerning first=98  second=87  amount=-3  
kerning first=98  second=88  amount=-2  
kerning first=98  second=89  amount=-4  
kerning first=98  second=90  amount=-1  
kerning first=98  second=93  amount=-1  
kerning first=98  second=95  amount=-10 
kerning first=98  second=96  amount=-5  
kerning first=98  second=97  amount=-1  
kerning first=98  second=106 amount=-1  
kerning first=98  second=116 amount=-1  
kerning first=98  second=118 amount=-1  
kerning first=98  second=119 amount=-1  
kerning first=98  second=120 amount=-1  
kerning first=98  second=121 amount=-1  
kerning first=98  second=123 amount=-1  
kerning first=103 second=65  amount=-2  
kerning first=102 second=109 amount=-1  
kerning first=102 second=97  amount=-2  
kerning first=102 second=96  amount=-5  
kerning first=102 second=95  amount=-8  
kerning first=102 second=93  amount=-1  
kerning first=99  second=52  amount=-2  
kerning first=99  second=65  amount=-1  
kerning first=102 second=89  amount=-1  
kerning first=99  second=74  amount=-1  
kerning first=99  second=77  amount=-1  
kerning first=99  second=84  amount=-2  
kerning first=99  second=86  amount=-2  
kerning first=99  second=87  amount=-1  
kerning first=99  second=88  amount=-1  
kerning first=99  second=89  amount=-2  
kerning first=99  second=93  amount=-1  
kerning first=99  second=95  amount=-10 
kerning first=99  second=96  amount=-5  
kerning first=99  second=123 amount=-1  
kerning first=100 second=49  amount=-1  
kerning first=100 second=50  amount=-1  
kerning first=100 second=65  amount=-2  
kerning first=102 second=88  amount=-2  
kerning first=102 second=87  amount=-1  
kerning first=102 second=86  amount=-1  
kerning first=100 second=74  amount=-1  
kerning first=102 second=77  amount=-1  
kerning first=100 second=77  amount=-1  
kerning first=102 second=74  amount=-1  
kerning first=100 second=84  amount=-4  
kerning first=100 second=86  amount=-3  
kerning first=100 second=87  amount=-2  
kerning first=100 second=88  amount=-3  
kerning first=100 second=89  amount=-4  
kerning first=100 second=90  amount=-1  
kerning first=100 second=93  amount=-1  
kerning first=100 second=95  amount=-10 
kerning first=100 second=96  amount=-5  
kerning first=100 second=97  amount=-2  
kerning first=100 second=106 amount=-1  
kerning first=100 second=109 amount=-1  
kerning first=100 second=116 amount=-1  
kerning first=100 second=118 amount=-2  
kerning first=100 second=119 amount=-1  
kerning first=100 second=120 amount=-2  
kerning first=100 second=121 amount=-2  
kerning first=102 second=65  amount=-3  
kerning first=101 second=96  amount=-5  
kerning first=101 second=95  amount=-9  
kerning first=101 second=93  amount=-1  
kerning first=101 second=89  amount=-1  
kerning first=101 second=88  amount=-1  
kerning first=101 second=87  amount=-1  
kerning first=101 second=86  amount=-2  
kerning first=101 second=65  amount=-1  
kerning first=101 second=74  amount=-1  
kerning first=101 second=85  amount=-1  
