%YAML 1.1
%TAG !u! tag:unity3d.com,2011:
--- !u!78 &1
TagManager:
  tags:
  - Creature
  - InputStream
  - Terrain
  - 
  - ground
  - GUI
  - Rune
  - CreatureDest
  - Corpse
  - SpawnPoint
  - explosion
  - TargetMarker
  - AOEMarker
  - 
  Builtin Layer 0: Default
  Builtin Layer 1: TransparentFX
  Builtin Layer 2: Ignore Raycast
  Builtin Layer 3: 
  Builtin Layer 4: Water
  Builtin Layer 5: 
  Builtin Layer 6: 
  Builtin Layer 7: 
  User Layer 8: AOESkills
  User Layer 9: Creature
  User Layer 10: Ground
  User Layer 11: GUI
  User Layer 12: Rune
  User Layer 13: mapsystem
  User Layer 14: MainCamera
  User Layer 15: 
  User Layer 16: 
  User Layer 17: 
  User Layer 18: 
  User Layer 19: 
  User Layer 20: 
  User Layer 21: 
  User Layer 22: 
  User Layer 23: 
  User Layer 24: 
  User Layer 25: 
  User Layer 26: 
  User Layer 27: 
  User Layer 28: 
  User Layer 29: 
  User Layer 30: 
  User Layer 31: 
  m_SortingLayers:
  - name: Default
    userID: 0
    uniqueID: 0
    locked: 0
